<svg width="152" height="46" viewBox="0 0 152 46" fill="none" xmlns="http://www.w3.org/2000/svg">
<path d="M13.4423 39.8348C13.3115 39.8348 13.186 39.7828 13.0935 39.6903C13.001 39.5978 12.949 39.4723 12.949 39.3415V32.3782C12.949 32.2474 12.897 32.1219 12.8045 32.0294C12.712 31.9369 12.5866 31.8849 12.4557 31.8849H8.21503C6.99561 31.8859 5.82551 31.4035 4.9611 30.5434C4.09669 29.6833 3.60847 28.5156 3.60341 27.2962V22.7076C3.60341 22.5767 3.55144 22.4513 3.45893 22.3588C3.36642 22.2662 3.24095 22.2143 3.11013 22.2143H2.00502C1.81381 22.2147 1.62588 22.1646 1.46022 22.0691C1.29457 21.9736 1.15707 21.8361 1.06162 21.6704C0.966165 21.5047 0.916151 21.3168 0.916629 21.1256C0.917108 20.9344 0.968062 20.7467 1.06434 20.5815L4.75058 14.1956C4.79652 14.1154 4.81904 14.024 4.81558 13.9317C4.81558 13.8093 4.81558 13.6985 4.81558 13.5876C4.81558 5.90535 11.0638 0.421876 18.746 0.421876C19.9686 0.421432 21.186 0.580838 22.3673 0.89604C22.4304 0.914007 22.4894 0.944401 22.5406 0.985441C22.5919 1.02648 22.6344 1.07734 22.6658 1.13504C22.6971 1.19273 22.7166 1.25611 22.7231 1.32144C22.7297 1.38677 22.7231 1.45275 22.7038 1.51551C22.6657 1.6382 22.5813 1.74121 22.4685 1.80262C22.3556 1.86404 22.2233 1.87901 22.0996 1.84437C21.007 1.55211 19.8809 1.40427 18.7499 1.40462C11.6106 1.40462 5.80597 6.44834 5.80597 13.5837C5.80597 13.7558 5.80597 13.9355 5.80597 14.1688V14.3141L2.2574 20.4591C2.20894 20.5349 2.18195 20.6224 2.17933 20.7124C2.17671 20.8023 2.19854 20.8913 2.2425 20.9698C2.28646 21.0483 2.3509 21.1133 2.42894 21.1581C2.50699 21.2029 2.59572 21.2256 2.68567 21.2239H4.09669C4.22752 21.2239 4.35298 21.2759 4.44549 21.3684C4.538 21.4609 4.58997 21.5863 4.58997 21.7172V27.2924C4.58947 27.7686 4.68289 28.2402 4.86489 28.6803C5.04689 29.1203 5.31389 29.5201 5.65061 29.8568C5.98732 30.1935 6.38715 30.4605 6.82718 30.6425C7.26722 30.8245 7.73884 30.918 8.21503 30.9175H13.4767C13.6075 30.9175 13.733 30.9694 13.8255 31.0619C13.918 31.1544 13.97 31.2799 13.97 31.4107V39.3606C13.9676 39.4268 13.9519 39.4918 13.9239 39.5517C13.8958 39.6117 13.856 39.6654 13.8067 39.7097C13.7575 39.7539 13.6998 39.7878 13.6372 39.8093C13.5746 39.8308 13.5083 39.8395 13.4423 39.8348Z" fill="white"/>
<path d="M28.2523 39.8348C28.1215 39.8348 27.996 39.7828 27.9035 39.6903C27.811 39.5978 27.759 39.4723 27.759 39.3415V23.6176L27.9043 23.4723C28.6379 22.7337 29.2798 21.9095 29.8163 21.0174C29.8832 20.9048 29.9918 20.8232 30.1185 20.7903C30.2453 20.7574 30.3799 20.7758 30.4931 20.8415C30.5509 20.8726 30.6018 20.915 30.6429 20.9662C30.6839 21.0174 30.7143 21.0763 30.7321 21.1394C30.75 21.2025 30.7549 21.2686 30.7467 21.3337C30.7385 21.3988 30.7173 21.4616 30.6843 21.5183C30.1703 22.3706 29.5665 23.1654 28.8833 23.8891C28.7966 23.9796 28.7486 24.1003 28.7494 24.2256V39.3492C28.7474 39.4793 28.694 39.6034 28.6009 39.6944C28.5078 39.7853 28.3825 39.8358 28.2523 39.8348Z" fill="white"/>
<path d="M20.5776 20.2794C20.5776 19.4819 20.8942 18.717 21.4577 18.1528C22.0213 17.5885 22.7857 17.271 23.5832 17.27H30.363C31.1677 17.2764 31.9491 17.0007 32.5716 16.4907C33.194 15.9807 33.6181 15.2688 33.7701 14.4785C33.8522 13.9966 33.8285 13.5026 33.7005 13.0308C33.5726 12.559 33.3435 12.1207 33.0291 11.7463C32.7148 11.3719 32.3227 11.0704 31.8801 10.8627C31.4375 10.6551 30.9551 10.5462 30.4662 10.5438H29.8888L29.9385 10.0046C29.9737 9.65571 29.966 9.30385 29.9156 8.95684C29.7742 7.90579 29.3084 6.92503 28.5832 6.15119C27.8581 5.37736 26.9096 4.84897 25.8699 4.63966C24.7708 4.43992 23.6365 4.61472 22.6486 5.13607C21.6607 5.65743 20.8762 6.49519 20.4209 7.51523L20.1838 8.04293L19.7364 7.74849C19.4498 7.5578 19.1311 7.42049 18.7957 7.34316C18.393 7.25452 17.9756 7.25671 17.5739 7.34955C17.1721 7.44239 16.7961 7.62355 16.4731 7.87988C16.1502 8.13621 15.8883 8.46127 15.7067 8.83144C15.5251 9.2016 15.4282 9.60758 15.423 10.0199V10.5552H14.9106H14.838H14.7844C14.2947 10.5556 13.8109 10.6627 13.3668 10.8692C12.9226 11.0757 12.5289 11.3765 12.2129 11.7507C11.8969 12.1249 11.6664 12.5635 11.5372 13.0359C11.4081 13.5084 11.3836 14.0033 11.4653 14.4862C11.6165 15.2771 12.0402 15.99 12.6627 16.5007C13.2853 17.0115 14.0672 17.2877 14.8724 17.2815H18.5586C18.9536 17.2815 19.3448 17.3593 19.7097 17.5106C20.0746 17.6619 20.4061 17.8836 20.6852 18.1631C20.9644 18.4426 21.1857 18.7744 21.3365 19.1395C21.4873 19.5046 21.5647 19.8959 21.5642 20.2909L21.5374 39.4104C21.5374 39.4674 21.5261 39.5239 21.5042 39.5766C21.4822 39.6293 21.4501 39.6771 21.4095 39.7173C21.369 39.7574 21.3209 39.7892 21.268 39.8107C21.2152 39.8322 21.1586 39.843 21.1015 39.8425H20.9868C20.8708 39.8425 20.7595 39.7967 20.6772 39.715C20.5948 39.6334 20.5481 39.5225 20.547 39.4065L20.5776 20.2871C20.5776 19.7516 20.3649 19.238 19.9863 18.8594C19.6076 18.4807 19.0941 18.268 18.5586 18.268H14.8915C13.8281 18.2796 12.7962 17.9075 11.985 17.2199C11.1738 16.5323 10.6377 15.5753 10.4749 14.5244C10.3922 13.934 10.4315 13.3329 10.5903 12.7583C10.7491 12.1837 11.0241 11.6478 11.3982 11.1836C11.7724 10.7195 12.2378 10.3371 12.7656 10.06C13.2935 9.78283 13.8725 9.61693 14.467 9.57249C14.542 8.98827 14.7534 8.42991 15.0842 7.9426C15.415 7.45529 15.856 7.05273 16.3713 6.76751C16.8866 6.48229 17.4619 6.32242 18.0505 6.30086C18.6391 6.27929 19.2245 6.39664 19.7593 6.64338C20.4041 5.48467 21.4163 4.57364 22.6363 4.05403C23.8562 3.53442 25.2145 3.43583 26.4967 3.77381C27.7789 4.11179 28.9121 4.8671 29.7175 5.92056C30.5228 6.97401 30.9544 8.26563 30.9442 9.59161C31.5192 9.65769 32.0752 9.83758 32.5799 10.1208C33.0845 10.404 33.5278 10.7849 33.8837 11.2412C34.2397 11.6975 34.5012 12.2201 34.653 12.7786C34.8049 13.337 34.844 13.9201 34.7681 14.4938C34.6085 15.5523 34.0717 16.5173 33.2564 17.2109C32.4412 17.9045 31.4027 18.28 30.3324 18.268H23.5832C23.0477 18.268 22.5342 18.4807 22.1556 18.8594C21.7769 19.238 21.5642 19.7516 21.5642 20.2871L20.5776 20.2794Z" fill="#3FBAED"/>
<path d="M48.1786 25.4302C47.6669 24.7311 46.9851 24.1743 46.1978 23.8127C45.4258 23.4564 44.5855 23.2724 43.7353 23.2735C42.7904 23.2708 41.8575 23.4854 41.0088 23.9006C40.1922 24.2916 39.4626 24.843 38.8636 25.522C38.2506 26.2131 37.7732 27.0135 37.4564 27.8813C37.1212 28.7763 36.9514 29.7247 36.9555 30.6804C36.9458 31.6689 37.1155 32.651 37.4564 33.5789C37.7692 34.4384 38.2414 35.2311 38.8483 35.9153C39.4463 36.5767 40.1722 37.11 40.982 37.4831C41.8763 37.8752 42.8438 38.0725 43.8202 38.062C44.7966 38.0514 45.7596 37.8332 46.6452 37.4219C47.5168 36.9787 48.2795 36.3479 48.8784 35.575L50.4615 36.9057C49.7154 37.9309 48.7151 38.744 47.5591 39.265C46.3525 39.7861 45.0495 40.0467 43.7353 40.0298C42.5118 40.0397 41.2992 39.8003 40.1714 39.3262C39.092 38.8769 38.1141 38.215 37.2958 37.3799C36.4704 36.5327 35.8207 35.5308 35.3839 34.4316C34.9151 33.2412 34.6814 31.9712 34.6956 30.6919C34.6858 29.4386 34.9115 28.1947 35.3609 27.0247C36.0062 25.3352 37.1554 23.8849 38.6527 22.8705C40.15 21.8561 41.923 21.3266 43.7314 21.3539C44.9219 21.3501 46.1024 21.5706 47.2112 22.004C48.3247 22.4406 49.2942 23.1796 50.0103 24.1377L48.1786 25.4302Z" fill="white"/>
<path d="M52.0446 33.6745C52.0335 32.8134 52.1961 31.959 52.5226 31.1622C52.8247 30.4329 53.2693 29.7712 53.8303 29.2158C54.3974 28.6633 55.0715 28.2326 55.8111 27.9501C57.4297 27.3432 59.2133 27.3432 60.8319 27.9501C61.569 28.233 62.2405 28.6638 62.805 29.2158C63.3637 29.7724 63.8068 30.4338 64.109 31.1622C64.7465 32.7751 64.7465 34.5701 64.109 36.183C63.8078 36.9118 63.3645 37.5735 62.805 38.1293C62.2374 38.6839 61.5619 39.116 60.8204 39.3989C59.2009 40.0006 57.4192 40.0006 55.7997 39.3989C55.0598 39.115 54.3858 38.683 53.8189 38.1293C53.257 37.5747 52.8122 36.9128 52.5111 36.183C52.1889 35.3865 52.0303 34.5335 52.0446 33.6745ZM54.1554 33.6745C54.1498 34.2604 54.2468 34.8428 54.4422 35.3952C54.6282 35.9067 54.9142 36.3759 55.2834 36.7757C55.6567 37.1694 56.1054 37.4841 56.6027 37.701C57.7048 38.1557 58.9421 38.1557 60.0442 37.701C60.5426 37.4876 60.9917 37.1737 61.3634 36.7789C61.7351 36.3842 62.0215 35.917 62.2047 35.4067C62.5922 34.2923 62.5922 33.0796 62.2047 31.9652C62.0203 31.4555 61.7335 30.989 61.3619 30.5944C60.9903 30.1998 60.5419 29.8855 60.0442 29.6709C58.9421 29.2162 57.7048 29.2162 56.6027 29.6709C56.1044 29.8879 55.6556 30.204 55.2834 30.6001C54.9133 30.9992 54.6272 31.4686 54.4422 31.9805C54.2499 32.5245 54.1529 33.0975 54.1554 33.6745Z" fill="white"/>
<path d="M78.6589 39.0203C78.6589 41.1617 78.1108 42.7894 77.0147 43.9034C75.9185 45.0175 74.3328 45.5745 72.2577 45.5745C71.1936 45.5895 70.1351 45.4187 69.1298 45.0697C68.1309 44.6921 67.2265 44.1009 66.4798 43.3375L67.887 41.7315C68.4437 42.3582 69.1113 42.8768 69.8563 43.261C70.606 43.6169 71.4281 43.7936 72.2577 43.7772C72.9993 43.8034 73.738 43.6731 74.4259 43.3948C74.9646 43.1652 75.4357 42.802 75.7948 42.3395C76.1357 41.8856 76.3756 41.3641 76.4984 40.8099C76.6346 40.2257 76.7026 39.6278 76.7011 39.028V37.5137H76.6476C76.2139 38.2353 75.5767 38.8127 74.8159 39.1733C74.0984 39.5128 73.3154 39.6916 72.5216 39.6971C71.6556 39.7076 70.7955 39.5545 69.9863 39.2459C69.2481 38.9637 68.5735 38.5373 68.0017 37.9917C67.4463 37.4513 67.0111 36.7998 66.7245 36.0797C66.4165 35.3143 66.2619 34.4958 66.2695 33.6707C66.2571 32.7881 66.4114 31.911 66.7245 31.0857C66.999 30.3522 67.431 29.6877 67.9902 29.1394C68.555 28.5987 69.2273 28.1831 69.9634 27.9195C70.784 27.6264 71.6502 27.4814 72.5216 27.4913C72.9271 27.493 73.3312 27.5405 73.7261 27.6327C74.132 27.7261 74.5249 27.8686 74.8962 28.0572C75.2687 28.2484 75.6103 28.4946 75.9095 28.7876C76.2192 29.0818 76.4777 29.4255 76.6743 29.8047H76.7279V27.7933H78.6857L78.6589 39.0203ZM68.365 33.6669C68.3538 34.4935 68.5889 35.3048 69.0404 35.9974C69.4919 36.6899 70.1394 37.2324 70.9002 37.5558C71.407 37.7755 71.9539 37.8875 72.5063 37.8846C73.1185 37.8957 73.7261 37.7758 74.2882 37.5328C74.7824 37.3175 75.2269 37.0026 75.5941 36.6079C75.9612 36.2131 76.243 35.747 76.4219 35.2385C76.6085 34.7184 76.703 34.1697 76.7011 33.6171C76.7068 33.0224 76.6045 32.4316 76.399 31.8734C76.2086 31.365 75.9187 30.8996 75.5463 30.5045C75.1698 30.1178 74.7165 29.8143 74.2156 29.6135C73.671 29.4011 73.0908 29.2947 72.5063 29.3C71.924 29.2929 71.3467 29.4089 70.8123 29.6403C70.3169 29.8545 69.8725 30.1712 69.5083 30.5695C69.1413 30.9709 68.8556 31.4397 68.6671 31.9499C68.4606 32.5012 68.3582 33.0859 68.365 33.6745V33.6669Z" fill="white"/>
<path d="M81.9704 30.5848C81.9704 30.0494 81.9704 29.5485 81.9207 29.0782C81.871 28.6078 81.871 28.1834 81.871 27.7972H83.7294C83.7294 28.1184 83.7294 28.4358 83.7523 28.7531C83.7753 29.0705 83.7791 29.3956 83.7791 29.7321H83.8365C83.9826 29.4287 84.1734 29.149 84.4024 28.9023C84.6563 28.6254 84.9471 28.3848 85.2666 28.1872C85.6253 27.9705 86.011 27.8021 86.4138 27.6863C86.8531 27.5562 87.3093 27.4918 87.7674 27.4951C88.4499 27.4786 89.1287 27.5995 89.7635 27.8507C90.2981 28.0648 90.7758 28.3999 91.1592 28.8296C91.5407 29.2728 91.8189 29.7953 91.9737 30.3592C92.155 30.9919 92.2439 31.6474 92.2376 32.3055V39.5709H90.2797V32.4929C90.3266 31.6644 90.0966 30.8438 89.6258 30.1603C89.3802 29.865 89.0671 29.6331 88.7131 29.484C88.3591 29.335 87.9744 29.2732 87.5915 29.3038C87.0259 29.2904 86.4643 29.4027 85.9472 29.6326C85.4983 29.8414 85.1101 30.1612 84.8192 30.5618C84.511 30.9919 84.2889 31.4775 84.1653 31.992C84.0175 32.5912 83.9455 33.2065 83.9512 33.8236V39.5595H81.9933L81.9704 30.5848Z" fill="white"/>
<path d="M95.5529 29.3038C96.1526 28.6879 96.8868 28.2193 97.6981 27.9349C98.5083 27.6464 99.3617 27.4977 100.222 27.4951C101.96 27.4951 103.216 27.9055 103.988 28.7264C104.761 29.5473 105.143 30.7951 105.136 32.47V37.5137C105.136 37.8502 105.136 38.1982 105.185 38.5577C105.235 38.9171 105.262 39.246 105.311 39.548H103.43C103.358 39.2564 103.32 38.9575 103.315 38.6571C103.315 38.3282 103.315 38.0414 103.315 37.7891H103.266C102.878 38.3958 102.354 38.9038 101.736 39.2727C101.029 39.6723 100.227 39.8719 99.415 39.8501C98.8413 39.8536 98.27 39.7777 97.7172 39.6245C97.2214 39.4858 96.7541 39.2606 96.3368 38.9592C95.9459 38.6689 95.6246 38.2953 95.3961 37.8655C95.1551 37.4005 95.0342 36.8826 95.0443 36.3589C94.9966 35.5245 95.2702 34.7035 95.8091 34.0646C96.3204 33.5052 96.963 33.082 97.6789 32.8333C98.4569 32.5581 99.2686 32.3896 100.092 32.3323C100.953 32.2635 101.744 32.2291 102.463 32.2291H103.227V31.8811C103.253 31.5219 103.197 31.1616 103.065 30.8267C102.933 30.4918 102.727 30.1909 102.463 29.9462C101.848 29.477 101.085 29.2449 100.314 29.2923C99.6773 29.2939 99.0457 29.3998 98.4437 29.6059C97.8419 29.8097 97.2904 30.1395 96.8262 30.5734L95.5529 29.3038ZM101.228 33.8925C100.205 33.8485 99.1861 34.0286 98.2411 34.4202C97.9012 34.5605 97.6128 34.802 97.4151 35.1119C97.2174 35.4218 97.1199 35.7851 97.1359 36.1524C97.1077 36.4558 97.1612 36.7613 97.291 37.037C97.4208 37.3128 97.6221 37.5487 97.8739 37.7202C98.4328 38.048 99.0734 38.2098 99.7209 38.1867C100.234 38.1966 100.744 38.0976 101.216 37.8961C101.621 37.7183 101.984 37.4578 102.283 37.1313C102.572 36.8046 102.793 36.4238 102.933 36.0109C103.089 35.5721 103.174 35.1113 103.185 34.6458V33.881L101.228 33.8925Z" fill="white"/>
<path d="M109.109 36.4583C109.461 36.9121 109.891 37.3004 110.378 37.6055C110.909 37.9172 111.518 38.071 112.133 38.049C112.442 38.0477 112.749 38.0144 113.051 37.9496C113.348 37.887 113.632 37.7759 113.892 37.6208C114.132 37.481 114.337 37.2889 114.493 37.0587C114.65 36.8153 114.728 36.5297 114.718 36.2403C114.729 35.9698 114.655 35.7027 114.508 35.4756C114.355 35.2676 114.163 35.0921 113.942 34.9593C113.691 34.811 113.421 34.6978 113.139 34.6228C112.837 34.5387 112.527 34.4622 112.21 34.3972C111.655 34.2787 111.131 34.1448 110.627 33.9957C110.163 33.861 109.72 33.6614 109.311 33.403C108.938 33.1673 108.627 32.8445 108.405 32.4623C108.164 32.0076 108.047 31.4969 108.069 30.9825C108.058 30.455 108.19 29.9346 108.451 29.4759C108.697 29.0364 109.041 28.6595 109.457 28.3746C109.887 28.0852 110.361 27.8658 110.86 27.7245C111.383 27.5711 111.925 27.4938 112.47 27.4951C113.272 27.4874 114.065 27.6599 114.791 27.9998C115.512 28.3452 116.098 28.9193 116.458 29.6326L114.81 30.711C114.563 30.2985 114.223 29.9501 113.816 29.6938C113.366 29.4255 112.848 29.2928 112.325 29.3114C112.049 29.3131 111.774 29.3465 111.506 29.4109C111.246 29.4724 110.997 29.5743 110.768 29.7129C110.553 29.8439 110.369 30.02 110.229 30.2292C110.085 30.4394 110.01 30.6894 110.015 30.9442C110.008 31.1809 110.093 31.4109 110.252 31.5867C110.44 31.7796 110.661 31.9364 110.906 32.0493C111.212 32.1953 111.531 32.313 111.858 32.4011C112.226 32.5028 112.598 32.5857 112.975 32.6497C113.477 32.7459 113.972 32.8736 114.458 33.0321C114.899 33.1784 115.314 33.3953 115.686 33.6745C116.037 33.9391 116.321 34.2822 116.516 34.6764C116.731 35.1406 116.834 35.6487 116.818 36.16C116.836 36.7539 116.698 37.3422 116.416 37.8655C116.157 38.3274 115.791 38.7207 115.349 39.0127C114.889 39.3133 114.379 39.5295 113.843 39.6513C113.279 39.7859 112.701 39.8539 112.122 39.8539C111.234 39.8746 110.351 39.716 109.525 39.3874C108.715 39.0139 108.028 38.4169 107.545 37.6667L109.109 36.4583Z" fill="white"/>
<path d="M119.705 36.4583C120.057 36.9121 120.487 37.3004 120.974 37.6055C121.503 37.9097 122.108 38.0582 122.718 38.0337C123.025 38.0324 123.331 37.9991 123.632 37.9343C123.929 37.8724 124.213 37.7612 124.473 37.6055C124.715 37.4668 124.922 37.2745 125.077 37.0433C125.232 36.7992 125.311 36.5142 125.303 36.225C125.312 35.9541 125.237 35.6869 125.089 35.4603C124.939 35.2515 124.747 35.0758 124.527 34.944C124.274 34.7963 124.003 34.6832 123.72 34.6075C123.421 34.5234 123.112 34.4469 122.794 34.3819C122.241 34.2621 121.713 34.1283 121.211 33.9804C120.746 33.8449 120.302 33.6454 119.892 33.3877C119.52 33.1507 119.211 32.8281 118.99 32.447C118.747 31.9927 118.629 31.4819 118.649 30.9672C118.639 30.4398 118.771 29.9194 119.032 29.4606C119.279 29.0282 119.621 28.658 120.033 28.3784C120.465 28.089 120.94 27.8696 121.441 27.7283C121.962 27.5752 122.503 27.4979 123.047 27.4989C123.848 27.4912 124.642 27.6637 125.368 28.0037C126.092 28.3475 126.683 28.9216 127.047 29.6365L125.414 30.7148C125.169 30.3022 124.829 29.9537 124.423 29.6976C123.972 29.4295 123.453 29.2967 122.928 29.3153C122.654 29.3167 122.38 29.3501 122.114 29.4147C121.852 29.4769 121.602 29.5787 121.372 29.7168C121.157 29.8477 120.973 30.0239 120.833 30.233C120.69 30.444 120.615 30.6935 120.619 30.9481C120.614 31.1852 120.7 31.4151 120.859 31.5905C121.045 31.7842 121.266 31.9412 121.51 32.0532C121.817 32.1984 122.137 32.3162 122.465 32.405C122.833 32.507 123.206 32.5899 123.582 32.6535C124.083 32.7492 124.577 32.877 125.062 33.0359C125.504 33.1822 125.92 33.3991 126.293 33.6783C126.643 33.944 126.927 34.2869 127.123 34.6802C127.335 35.1453 127.437 35.653 127.421 36.1639C127.44 36.7577 127.301 37.346 127.02 37.8693C126.761 38.3312 126.395 38.7245 125.953 39.0165C125.494 39.3164 124.985 39.5326 124.45 39.6551C123.886 39.7897 123.309 39.8577 122.729 39.8577C121.84 39.8784 120.956 39.7198 120.129 39.3912C119.324 39.0162 118.641 38.421 118.16 37.6743L119.705 36.4583Z" fill="white"/>
<path d="M128.641 23.2047C128.639 23.018 128.675 22.8329 128.746 22.6602C128.817 22.4875 128.922 22.3307 129.054 22.199C129.187 22.0644 129.345 21.9576 129.52 21.8846C129.695 21.8117 129.882 21.7742 130.071 21.7742C130.26 21.7742 130.448 21.8117 130.622 21.8846C130.797 21.9576 130.955 22.0644 131.088 22.199C131.259 22.3658 131.387 22.5725 131.458 22.8006C131.529 23.0286 131.543 23.2709 131.498 23.5056C131.452 23.7402 131.349 23.9599 131.198 24.1448C131.046 24.3298 130.851 24.4742 130.63 24.565C130.409 24.6559 130.169 24.6903 129.931 24.6653C129.694 24.6402 129.466 24.5565 129.269 24.4216C129.071 24.2867 128.911 24.1048 128.801 23.8924C128.692 23.68 128.637 23.4436 128.641 23.2047ZM129.092 27.7933H131.05V39.5442H129.092V27.7933Z" fill="white"/>
<path d="M134.19 36.4583C134.542 36.9121 134.972 37.3004 135.459 37.6055C135.988 37.9097 136.593 38.0582 137.203 38.0337C137.51 38.0324 137.816 37.9991 138.117 37.9343C138.413 37.8724 138.698 37.7612 138.958 37.6055C139.2 37.4668 139.406 37.2745 139.562 37.0433C139.717 36.7992 139.796 36.5142 139.788 36.225C139.797 35.9541 139.722 35.6869 139.574 35.4603C139.424 35.2515 139.232 35.0758 139.011 34.944C138.759 34.7963 138.487 34.6832 138.205 34.6075C137.906 34.5234 137.597 34.4469 137.279 34.3819C136.726 34.2621 136.198 34.1283 135.696 33.9804C135.231 33.8449 134.787 33.6454 134.377 33.3877C134.005 33.1507 133.696 32.8281 133.474 32.447C133.232 31.9927 133.114 31.4819 133.134 30.9672C133.124 30.4398 133.256 29.9194 133.517 29.4606C133.764 29.0282 134.106 28.658 134.518 28.3784C134.95 28.089 135.425 27.8696 135.926 27.7283C136.447 27.5752 136.988 27.4979 137.532 27.4989C138.333 27.4912 139.127 27.6637 139.853 28.0037C140.574 28.3488 141.162 28.9229 141.524 29.6365L139.891 30.7148C139.646 30.3022 139.306 29.9537 138.901 29.6976C138.449 29.429 137.93 29.2963 137.405 29.3153C137.131 29.3167 136.858 29.3501 136.591 29.4147C136.33 29.4769 136.079 29.5787 135.849 29.7168C135.634 29.8477 135.45 30.0239 135.31 30.233C135.167 30.444 135.093 30.6935 135.096 30.9481C135.091 31.1852 135.177 31.4151 135.337 31.5905C135.522 31.7842 135.743 31.9412 135.987 32.0532C136.294 32.1984 136.614 32.3162 136.943 32.405C137.31 32.507 137.683 32.5899 138.059 32.6535C138.56 32.7492 139.055 32.877 139.539 33.0359C139.982 33.1822 140.397 33.3991 140.77 33.6783C141.12 33.944 141.404 34.2869 141.6 34.6802C141.813 35.145 141.917 35.6527 141.902 36.1639C141.925 36.7559 141.793 37.3436 141.52 37.8693C141.258 38.3306 140.891 38.7236 140.449 39.0165C139.99 39.3164 139.481 39.5326 138.946 39.6551C138.383 39.7897 137.805 39.8577 137.226 39.8577C136.336 39.8784 135.452 39.7198 134.625 39.3912C133.82 39.0162 133.137 38.421 132.656 37.6743L134.19 36.4583Z" fill="white"/>
<path d="M150.984 29.4568H147.52V35.3303C147.52 35.7127 147.52 36.0721 147.546 36.3971C147.555 36.6917 147.623 36.9816 147.745 37.2499C147.86 37.4902 148.044 37.6911 148.273 37.8273C148.582 37.9891 148.93 38.0632 149.279 38.0414C149.574 38.0393 149.869 38.006 150.158 37.942C150.453 37.8754 150.74 37.774 151.011 37.6399L151.083 39.4218C150.728 39.581 150.352 39.6904 149.967 39.7469C149.582 39.8136 149.192 39.8481 148.801 39.8501C148.227 39.8729 147.655 39.7792 147.118 39.5748C146.728 39.4147 146.389 39.1501 146.139 38.81C145.89 38.4376 145.732 38.012 145.676 37.5672C145.596 37.0229 145.558 36.4732 145.562 35.923V29.4568H143V27.7972H145.562V24.4589H147.52V27.7972H150.984V29.4568Z" fill="white"/>
</svg>
